﻿드랍 아이템 테이블,,,,,,,,,,,,,,,
,,,,,,,,,,,,,,,
,,,,,,,,,,,,,,,
몬스터 Id,몬스터 이름,미네랄 평균 획득량,,드랍아이템1 Id,,드랍아이템2 Id,,드랍아이템3 Id,,드랍아이템4 Id,,드랍아이템4 Id,,드랍아이템6 Id,
Monster Id,Monster Name,MineralCnt,ItemCnt,DropItem1 Id,value,DropItem2 Id,value,DropItem3 Id,value,DropItem4 Id,value,DropItem4 Id,value,DropItem5 Id,value
2101,Red Lizard,5,6,6101,5,6102,5,6103,5,6104,5,6201,5,0,80
2201,Lizard King,50,6,6101,25,6102,25,6103,25,6104,25,6201,25,0,0
2102,Red Naga Warrior,7,2,6105,7,6106,7,6107,7,6108,7,6202,7,0,72
2103,Blue Naga Magician,7,6,6105,7,6106,7,6107,7,6108,7,6202,7,0,72
2202,Naga King,100,6,6105,25,6106,25,6107,25,6108,25,6202,25,0,0
2104,Black Naga Warrior,10,6,6109,10,6110,10,6111,10,6112,10,6203,10,0,60
2105,Black Naga Magician,10,6,6109,10,6110,10,6111,10,6112,10,6203,10,0,60
2203,Naga Queen,140,6,6109,25,6110,25,6111,25,6112,25,6203,25,0,0
