id,path,index
1,Sprite/buffIcon,0
2,Sprite/buffIcon,1
3,Sprite/buffIcon,2
4,Sprite/buffIcon,3
5,Sprite/buffIcon,4
6,Sprite/buffIcon,5
7,Sprite/buffIcon,6
8,Sprite/buffIcon,7
9,Sprite/item/itm_lizardArmor,0
10,Sprite/item/itm_lizardGun,0
11,Sprite/item/itm_lizardNail,0
12,Sprite/item/itm_lizardShotGun,0
13,Sprite/item/itm_lizardSniper,0
14,Sprite/item/itm_lizardTurret,0
15,Sprite/item/itm_Mineral,0
16,Sprite/item/itm_nagaArmour,0
17,Sprite/item/itm_nagaBlackArmour,0
18,Sprite/item/itm_nagaBlackGun,0
19,Sprite/item/itm_nagaBlackShotGun,0
20,Sprite/item/itm_nagaBlackSniper,0
21,Sprite/item/itm_nagaBlackTurret,0
22,Sprite/item/itm_nagaGun,0
23,Sprite/item/itm_nagaShotGun,0
24,Sprite/item/itm_nagaSniper,0
25,Sprite/item/itm_nagaTurret,0
26,Sprite/skill/sFreedom,0
27,Sprite/skill/sGuard,0
28,Sprite/skill/sAtkSpeedNoBullet,0
29,Sprite/skill/sParal,0
30,Sprite/skill/sSnipe,0
31,Sprite/skill/sCriAtkSpeedBuff,0
32,Sprite/skill/sFireGrenade,0
33,Sprite/skill/sFlashBang,0
34,Sprite/skill/sFireBind,0
35,Sprite/skill/sDrone,0
36,Sprite/skill/sTowerConst,0
37,Sprite/skill/sDroneTowerEnhance,0
