%YAML 1.1
%TAG !u! tag:unity3d.com,2011:
--- !u!74 &7400000
AnimationClip:
  m_ObjectHideFlags: 0
  m_PrefabParentObject: {fileID: 0}
  m_PrefabInternal: {fileID: 0}
  m_Name: Snp_Start
  serializedVersion: 6
  m_Legacy: 0
  m_Compressed: 0
  m_UseHighQualityCurve: 1
  m_RotationCurves: []
  m_CompressedRotationCurves: []
  m_EulerCurves: []
  m_PositionCurves: []
  m_ScaleCurves: []
  m_FloatCurves: []
  m_PPtrCurves:
  - curve:
    - time: 0
      value: {fileID: 21300000, guid: d1ae354b58d7a2e40b99d91ad4b25124, type: 3}
    - time: 0.1
      value: {fileID: 21300000, guid: 788c20aaca506464d97b206070c410f5, type: 3}
    - time: 0.2
      value: {fileID: 21300000, guid: 03afed21d632176468fd2257561c119e, type: 3}
    - time: 0.3
      value: {fileID: 21300000, guid: 46187d52ff7326c4c9716c3c030d78c7, type: 3}
    - time: 0.4
      value: {fileID: 21300000, guid: a8882cfa3d8184d4bb2310fcfe9107e7, type: 3}
    attribute: m_Sprite
    path: 
    classID: 212
    script: {fileID: 0}
  m_SampleRate: 10
  m_WrapMode: 0
  m_Bounds:
    m_Center: {x: 0, y: 0, z: 0}
    m_Extent: {x: 0, y: 0, z: 0}
  m_ClipBindingConstant:
    genericBindings:
    - serializedVersion: 2
      path: 0
      attribute: 0
      script: {fileID: 0}
      typeID: 212
      customType: 23
      isPPtrCurve: 1
    pptrCurveMapping:
    - {fileID: 21300000, guid: d1ae354b58d7a2e40b99d91ad4b25124, type: 3}
    - {fileID: 21300000, guid: 788c20aaca506464d97b206070c410f5, type: 3}
    - {fileID: 21300000, guid: 03afed21d632176468fd2257561c119e, type: 3}
    - {fileID: 21300000, guid: 46187d52ff7326c4c9716c3c030d78c7, type: 3}
    - {fileID: 21300000, guid: a8882cfa3d8184d4bb2310fcfe9107e7, type: 3}
  m_AnimationClipSettings:
    serializedVersion: 2
    m_AdditiveReferencePoseClip: {fileID: 0}
    m_AdditiveReferencePoseTime: 0
    m_StartTime: 0
    m_StopTime: 0.5
    m_OrientationOffsetY: 0
    m_Level: 0
    m_CycleOffset: 0
    m_HasAdditiveReferencePose: 0
    m_LoopTime: 0
    m_LoopBlend: 0
    m_LoopBlendOrientation: 0
    m_LoopBlendPositionY: 0
    m_LoopBlendPositionXZ: 0
    m_KeepOriginalOrientation: 0
    m_KeepOriginalPositionY: 1
    m_KeepOriginalPositionXZ: 0
    m_HeightFromFeet: 0
    m_Mirror: 0
  m_EditorCurves: []
  m_EulerEditorCurves: []
  m_HasGenericRootTransform: 0
  m_HasMotionFloatCurves: 0
  m_GenerateMotionCurves: 0
  m_Events: []
